{
	"AWSTemplateFormatVersion": "2010-09-09",
	"Description": "Data DB Initiation",
	"Parameters": {
		"VPCStack": {
			"Description": "Name of VPC stack",
			"Type": "String",
			"Default": "Test-VPC"
		},
    "IAMStack": {
      "Description": "Name of IAM stack",
      "Type": "String",
      "Default": "Test-IAM"
    },
    "DBStack": {
      "Description": "Name of Data DB stack",
      "Type": "String",
      "Default": "Test-DataDB"
    },    
    "DataDBInitS3LocationBucket": {
      "Description": "Location of Data DB Backup for MyBB (S3 Bucket)",
      "Type": "String",
      "Default": "AndreyAsoskovtest"
    }, 
    "DataDBInitS3LocationLambdaFile": {
      "Description": "Location of Data DB Backup for MyBB (S3 key)",
      "Type": "String",
      "Default": "datadbinit.lambdapp.zip"
    }, 
    "DataDBInitS3LocationInitFile": {
      "Description": "Location of Data DB Backup for MyBB (S3 key)",
      "Type": "String",
      "Default": "backup.sql.zip"
    },           
		"EnvironmentType": {
			"Description": "Type of Environment",
			"Type": "String",
      		"AllowedValues" : ["Prod", "Test"],
      		"Default": "Test",
      		"ConstraintDescription" : "must specify Prod or Test."
		},
    "DBName" : {
      "Description" : "The name of Data DB that should be used for MyBB",
      "Type": "String",
      "MinLength" : "1",
      "MaxLength" : "64",
      "AllowedPattern" : "[a-zA-Z0-9]*",
      "ConstraintDescription": "Must contain only AlphaNumeric Values (min8-max24)",
      "Default": "mybbdb"
    },  
    "DBUser" : {
      "Description" : "The user that should be used in MyBB Data DB to access it",
      "Type": "String",
      "MinLength" : "1",
      "MaxLength" : "16",
      "AllowedPattern" : "[a-zA-Z0-9]*",
      "ConstraintDescription": "Must contain only AlphaNumeric Values (min8-max24)",
      "Default": "mybbuser"
    },    
    "DBPassword" : {
      "Description" : "The password that should be used in MyBB Data DB to access it",
      "Type": "String",
      "MinLength" : "8",
      "MaxLength" : "41",
      "NoEcho": "true",
      "AllowedPattern" : "[a-zA-Z0-9]*",
      "ConstraintDescription": "Must contain only AlphaNumeric Values (min8-max24)",
      "Default": "mybbpassword"
    } 
	},
	"Mappings": {
	},
	"Resources": {		
    	"DBInit": {
      		"Type": "Custom::DBInit",
      		"Properties": {
        		"ServiceToken": { "Fn::GetAtt" : ["CreateEmptyTables", "Arn"] },
            "S3Bucket": {"Ref": "DataDBInitS3LocationBucket"},
            "S3Key": {"Ref": "DataDBInitS3LocationInitFile"},
            "DBName": {"Ref": "DBName"},
            "DBHost": {"Fn::ImportValue" : {"Fn::Sub" : "${DBStack}-DBEndPointAddress"}},
            "DBUser": {"Ref": "DBUser"},
            "DBPassword": {"Ref": "DBPassword"}
        	}
    	},
    	"CreateEmptyTables": {
      		"Type": "AWS::Lambda::Function",
      		"Properties": {
        		"Handler": "index.handler",
        		"Role": {"Fn::ImportValue" : {"Fn::Sub" : "${IAMStack}-DataDBInitLambdaIAMRoleArn"}},
        		"Code": {
              "S3Bucket": { "Ref": "DataDBInitS3LocationBucket" },
              "S3Key": { "Ref": "DataDBInitS3LocationLambdaFile" }
        		},        
        		"Runtime": "nodejs4.3",
        		"Timeout": "60",
            "VpcConfig": {
              "SecurityGroupIds": [
                {"Fn::ImportValue" : {"Fn::Sub" : "${VPCStack}-DBProvisioningSecurityGroup"}}                
              ],             
              "SubnetIds": [
                {"Fn::ImportValue" : {"Fn::Sub" : "${VPCStack}-ManageSubnetIDz1"}}, 
                {"Fn::ImportValue" : {"Fn::Sub" : "${VPCStack}-ManageSubnetIDz2"}}                
              ]
            }
      		}
    	}
	},
	"Outputs": {
	}
}